Analysis of Personal Google Search History
…
# References:
# + https://www.tidytextmining.com/
# + https://www.tidytextmining.com/ngrams.html
# + https://www.tidytextmining.com/twitter.html
stop_words <- tidytext::stop_words
unigrams <-
  data %>%
  mutate(text = str_replace_all(text, rgx_patt, rgx_repl)) %>% 
  tidytext::unnest_tokens(word, text) %>% 
  anti_join(stop_words, by = "word") %>% 
  filter(str_detect(word, "[a-z]"))
unigrams %>% select(word) %>% count(word, sort = TRUE)

## # A tibble: 15,660 x 2
##    word          n
##    <chr>     <int>
##  1 nutrition  1682
##  2 excel      1226
##  3 ut          983
##  4 austin      825
##  5 vba         683
##  6 google      676
##  7 search      583
##  8 python      554
##  9 chicken     494
## 10 sql         455
## # ... with 15,650 more rows
# References:
# + https://www.tidytextmining.com/
# + https://www.tidytextmining.com/ngrams.html
bigrams <-
  data %>%
  mutate(text = str_replace_all(text, rgx_patt, rgx_repl)) %>% 
  tidytext::unnest_tokens(word, text, token = "ngrams", n = 2) %>% 
  tidyr::separate(word, into = c("word1", "word2"), sep = " ", remove = FALSE) %>% 
  anti_join(stop_words, by = c("word1" = "word")) %>% 
  anti_join(stop_words, by = c("word2" = "word")) %>% 
  filter(str_detect(word1, "[a-z]")) %>% 
  filter(str_detect(word2, "[a-z]"))
bigrams %>% select(word) %>% count(word, sort = TRUE)

## # A tibble: 35,007 x 2
##    word              n
##    <chr>         <int>
##  1 excel vba       598
##  2 google search   521
##  3 ut austin       478
##  4 pl sql          167
##  5 san antonio     131
##  6 baton rouge     113
##  7 round rock      112
##  8 peanut butter   102
##  9 sweet potato     95
## 10 oracle sql       94
## # ... with 34,997 more rows
…
unigrams_freqs <-
  compute_freqs(
    data = unigrams,
    colname_cnt = "word"
  )
unigrams_freqs

## # A tibble: 15,660 x 2
##    word       freq
##    <chr>     <dbl>
##  1 nutrition  1682
##  2 excel      1226
##  3 ut          983
##  4 austin      825
##  5 vba         683
##  6 google      676
##  7 search      583
##  8 python      554
##  9 chicken     494
## 10 sql         455
## # ... with 15,650 more rows

bigrams_freqs <-
  compute_freqs(
    data = bigrams,
    colname_cnt = "word"
  )
bigrams_freqs

## # A tibble: 35,007 x 2
##    word           freq
##    <chr>         <dbl>
##  1 excel vba     598  
##  2 google search 521  
##  3 ut austin     478  
##  4 pl sql        167  
##  5 san antonio   131  
##  6 baton rouge   113  
##  7 round rock    112  
##  8 peanut butter 102  
##  9 sweet potato   95.0
## 10 oracle sql     94.0
## # ... with 34,997 more rows
…
num_top_ngrams <- 50
num_top_corrs <- 50

unigrams_corrs <-
  compute_corrs(
    unigrams,
    num_top_ngrams = num_top_ngrams,
    num_top_corrs = num_top_corrs,
    colname_word = "word",
    colname_feature = "timestamp"
  )
unigrams_corrs

## # A tibble: 50 x 4
##    item1     item2   correlation  rank
##    <chr>     <chr>         <dbl> <int>
##  1 google    search       0.828      1
##  2 excel     vba          0.643      2
##  3 austin    ut           0.504      3
##  4 map       autocad      0.363      4
##  5 sql       oracle       0.292      5
##  6 column    excel        0.108      6
##  7 austin    tx           0.101      7
##  8 convert   list         0.0898     8
##  9 column    dplyr        0.0846     9
## 10 nutrition chicken      0.0824    10
## # ... with 40 more rows
…
  mutate(time_floor = floor_date(timestamp, unit = timefloor)) %>%
  group_by(time_floor, word) %>% 
  summarise(n = n()) %>% 
  ungroup() %>%
  group_by(time_floor) %>%
  mutate(time_total = sum(n)) %>%
  ungroup() %>% 
  group_by(word) %>%
  mutate(word_total = sum(n)) %>%
  ungroup() %>%
  filter(word_total >= quantile(word_total, 1 - top_pct_words)) %>% 
  arrange(desc(word_total))
unigrams_bytime

## # A tibble: 1,428 x 5
##    time_floor          word          n time_total word_total
##    <dttm>              <chr>     <int>      <int>      <int>
##  1 2012-01-01 00:00:00 nutrition    63       5728       1682
##  2 2013-01-01 00:00:00 nutrition   263      13394       1682
##  3 2014-01-01 00:00:00 nutrition   647      18854       1682
##  4 2015-01-01 00:00:00 nutrition   389      17424       1682
##  5 2016-01-01 00:00:00 nutrition   215      29117       1682
##  6 2017-01-01 00:00:00 nutrition   101      32386       1682
##  7 2018-01-01 00:00:00 nutrition     4       5102       1682
##  8 2013-01-01 00:00:00 excel         2      13394       1226
##  9 2014-01-01 00:00:00 excel       111      18854       1226
## 10 2015-01-01 00:00:00 excel        80      17424       1226
## # ... with 1,418 more rows

Next, Ill create logistic models for each word-year pair. These models attempt essentially answer the question How likely is it that a given word appears in a given year?

unigrams_bytime_models <- 
  unigrams_bytime %>% 
  tidyr::nest(-word) %>% 
  mutate(
    models =
      purrr::map(data, ~ glm(cbind(n, time_total) ~ time_floor, ., family = "binomial"))
  )
unigrams_bytime_models

## # A tibble: 236 x 3
##    word      data             models   
##    <chr>     <list>           <list>   
##  1 nutrition <tibble [7 x 4]> <S3: glm>
##  2 excel     <tibble [6 x 4]> <S3: glm>
##  3 ut        <tibble [7 x 4]> <S3: glm>
##  4 austin    <tibble [7 x 4]> <S3: glm>
##  5 vba       <tibble [4 x 4]> <S3: glm>
##  6 google    <tibble [8 x 4]> <S3: glm>
##  7 search    <tibble [7 x 4]> <S3: glm>
##  8 python    <tibble [3 x 4]> <S3: glm>
##  9 chicken   <tibble [7 x 4]> <S3: glm>
## 10 sql       <tibble [5 x 4]> <S3: glm>
## # ... with 226 more rows

unigrams_bytime_models_slopes <-
  unigrams_bytime_models %>%
  tidyr::unnest(purrr::map(models, broom::tidy)) %>%
  filter(term == "time_floor") %>%
  mutate(adjusted_p_value = p.adjust(p.value))
unigrams_bytime_models_slopes

## # A tibble: 236 x 7
##    word      term  estimate std.error statistic   p.value adjusted_p_value
##    <chr>     <chr>    <dbl>     <dbl>     <dbl>     <dbl>            <dbl>
##  1 nutrition time~ -1.10e-8  4.75e-10    -23.2  1.23e-118        2.88e-116
##  2 excel     time~  1.44e-8  7.72e-10     18.6  2.09e- 77        4.88e- 75
##  3 ut        time~ -1.04e-8  6.15e-10    -16.9  2.71e- 64        6.12e- 62
##  4 austin    time~ -4.91e-9  6.69e-10    - 7.34 2.07e- 13        3.75e- 11
##  5 vba       time~  3.46e-8  1.89e- 9     18.3  1.88e- 74        4.33e- 72
##  6 google    time~  2.04e-8  1.11e- 9     18.3  5.89e- 75        1.37e- 72
##  7 search    time~  2.19e-8  1.25e- 9     17.5  8.16e- 69        1.86e- 66
##  8 python    time~ -6.84e-8  4.10e- 9    -16.7  2.11e- 62        4.75e- 60
##  9 chicken   time~ -1.02e-8  8.65e-10    -11.8  3.64e- 32        8.01e- 30
## 10 sql       time~  1.91e-8  1.52e- 9     12.5  4.58e- 36        1.02e- 33
## # ... with 226 more rows
…
Term-Frequency Inverse Document Frequency (TF-IDF)

Another good way of evaluating my search behavior is to look at term-frequency inverse-document-frequency (TF-IDF). Ill leave the reader to read the details in the Tidy Text Mining book, but, in a nutshell, TF-IDF provides a good measure of the most unique words in a given document compared to other documents. For my analysis, Ill treat the years of search history as document.

# References:
# + https://www.tidytextmining.com/tfidf.html
# + https://juliasilge.com/blog/sherlock-holmes-stm/
data_tfidf <-
  unigrams %>%
  count(yyyy, word, sort = TRUE) %>% 
  tidytext::bind_tf_idf(word, yyyy, n)
data_tfidf

## # A tibble: 28,380 x 6
##     yyyy word          n      tf   idf  tf_idf
##    <int> <chr>     <int>   <dbl> <dbl>   <dbl>
##  1  2017 excel       724 0.0224  0.405 0.00906
##  2  2014 nutrition   647 0.0343  0.251 0.00862
##  3  2017 vba         540 0.0167  0.811 0.0135 
##  4  2016 python      492 0.0169  1.10  0.0186 
##  5  2015 nutrition   389 0.0223  0.251 0.00561
##  6  2017 google      349 0.0108  0.118 0.00127
##  7  2017 search      327 0.0101  0.251 0.00254
##  8  2016 excel       307 0.0105  0.405 0.00428
##  9  2016 austin      300 0.0103  0.251 0.00259
## 10  2016 ut          283 0.00972 0.251 0.00244
## # ... with 28,370 more rows
…
